11 Más detalles y diagnósticos del flujo bayesiano – Métodos analíticos
…
Adicionalmente, podemos ver si recuperamos o no los parámetros de la simulación. En primer lugar, calculamos el cuantil del valor verdadero para la posterior de la simulación:

resumen_cuantiles_tbl <- ajustes_apriori |> map_df(function(ajuste_lst){
  lambda_sim <- ajuste_lst$lambda_sim
  cuantiles_tbl <- ajuste_lst$ajuste$draws("lambda", format = "df") |> 
    mutate(menor = lambda_sim < lambda) |> 
    summarise(q_menor = mean(menor))
  cuantiles_tbl |> mutate(lambda_sim = lambda_sim)
})

Ahora podemos hacer una gráfica de cuantiles: si estamos recuperando correctamente los parámetros, la distribución de los cuantiles de los valores verdaderos en la posterior debe ser cercana a uniforme (pues si \(y\sim F\), entonces \(P(F(y)<t)) = t\) para cualquier \(t\)):

resumen_cuantiles_tbl

# A tibble: 40 × 2
   q_menor lambda_sim
     <dbl>      <dbl>
 1 0.669         1.92
 2 0.00433       5.75
 3 0.660         2.46
 4 0.885         6.39
 5 0.365         5.50
 6 0.464         6.38
 7 0.295         9.28
 8 0.587         8.71
 9 0.279         8.61
10 0.144         3.77
# ℹ 30 more rows
…
Ahora vemos si recuperamos o no los parámetros de la simulación. En primer lugar, calculamos el cuantil del valor verdadero para la posterior de la simulación:

resumen_cuantiles_tbl <- ajustes_apriori |> map_df(function(ajuste_lst){
  lambda_sim <- ajuste_lst$lambda_sim
  cuantiles_tbl <- ajuste_lst$ajuste$draws("lambda", format = "df") |> 
    mutate(menor = lambda_sim < lambda) |> 
    summarise(q_menor = mean(menor))
  cuantiles_tbl |> mutate(lambda_sim = lambda_sim)
})

Ahora podemos hacer una gráfica de cuantiles: si estamos recuperando correctamente los parámetros, la distribución de los cuantiles de los valores verdaderos en la posterior debe ser cercana a uniforme (pues si \(y\sim F\), entonces \(P(F(y)<t)) = t\) para cualquier \(t\)):

resumen_cuantiles_tbl

# A tibble: 40 × 2
   q_menor lambda_sim
     <dbl>      <dbl>
 1  0.0683       9.23
 2  0.300       13.6 
 3  0.953        2.33
 4  0.858        8.57
 5  0.209        4.77
 6  0.0227       3.45
 7  0.384        5.00
 8  0.883        8.40
 9  0.846        6.94
10  0.175        6.94
# ℹ 30 more rows
…
